{
  "project_info": {
    "project_number": "106274252706",
    "firebase_url": "https://etuspace-79785.firebaseio.com",
    "project_id": "etuspace-79785",
    "storage_bucket": "etuspace-79785.appspot.com"
  },
  "client": [
    {
      "client_info": {
        "mobilesdk_app_id": "1:106274252706:android:89aeb3f6d1769c59",
        "android_client_info": {
          "package_name": "com.etulabspace.etuphysics"
        }
      },
      "oauth_client": [
        {
          "client_id": "106274252706-4qrc4068u66u9i55c1g4gfig6hl4s90u.apps.googleusercontent.com",
          "client_type": 3
        }
      ],
      "api_key": [
        {
          "current_key": "AIzaSyAYxLdX9V0zQtDUSa5WlYTrWQ-bRmB8mwM"
        }
      ],
      "services": {
        "appinvite_service": {
          "other_platform_oauth_client": [
            {
              "client_id": "106274252706-4qrc4068u66u9i55c1g4gfig6hl4s90u.apps.googleusercontent.com",
              "client_type": 3
            }
          ]
        }
      }
    },
    {
      "client_info": {
        "mobilesdk_app_id": "1:106274252706:android:8adb889e2330deb5",
        "android_client_info": {
          "package_name": "com.etuspace.myapplication"
        }
      },
      "oauth_client": [
        {
          "client_id": "106274252706-699kgef3e57a84v5be74q47urusi7gsl.apps.googleusercontent.com",
          "client_type": 1,
          "android_info": {
            "package_name": "com.etuspace.myapplication",
            "certificate_hash": "27cba90ea9742353ab090d61d2d056ec956be937"
          }
        },
        {
          "client_id": "106274252706-4qrc4068u66u9i55c1g4gfig6hl4s90u.apps.googleusercontent.com",
          "client_type": 3
        }
      ],
      "api_key": [
        {
          "current_key": "AIzaSyAYxLdX9V0zQtDUSa5WlYTrWQ-bRmB8mwM"
        }
      ],
      "services": {
        "appinvite_service": {
          "other_platform_oauth_client": [
            {
              "client_id": "106274252706-4qrc4068u66u9i55c1g4gfig6hl4s90u.apps.googleusercontent.com",
              "client_type": 3
            }
          ]
        }
      }
    }
  ],
  "configuration_version": "1"
}